[
  {
    "Id": "00000000-0000-0000-0000-000000000000",
    "Name": "oleg",
    "Type": "TemperatureSensor",
    "Interval": 40
  },
  {
    "Id": "00000000-0000-0000-0000-000000000002",
    "Name": "nick",
    "Type": "PressureSensor",
    "Interval": 100
  }]